Linked: (/home/kaspar/robotics/catkin_ws_InFUmatiker/devel/.private/assignment2_publisher_subscriber/lib/pkgconfig/assignment2_publisher_subscriber.pc, /home/kaspar/robotics/catkin_ws_InFUmatiker/devel/lib/pkgconfig/assignment2_publisher_subscriber.pc)
Linked: (/home/kaspar/robotics/catkin_ws_InFUmatiker/devel/.private/assignment2_publisher_subscriber/share/assignment2_publisher_subscriber/cmake/assignment2_publisher_subscriberConfig.cmake, /home/kaspar/robotics/catkin_ws_InFUmatiker/devel/share/assignment2_publisher_subscriber/cmake/assignment2_publisher_subscriberConfig.cmake)
Linked: (/home/kaspar/robotics/catkin_ws_InFUmatiker/devel/.private/assignment2_publisher_subscriber/share/assignment2_publisher_subscriber/cmake/assignment2_publisher_subscriberConfig-version.cmake, /home/kaspar/robotics/catkin_ws_InFUmatiker/devel/share/assignment2_publisher_subscriber/cmake/assignment2_publisher_subscriberConfig-version.cmake)
