Linked: (/home/kaspar/robotics/catkin_ws_InFUmatiker/devel/.private/assignment4/lib/pkgconfig/assignment4.pc, /home/kaspar/robotics/catkin_ws_InFUmatiker/devel/lib/pkgconfig/assignment4.pc)
Linked: (/home/kaspar/robotics/catkin_ws_InFUmatiker/devel/.private/assignment4/share/assignment4/cmake/assignment4Config.cmake, /home/kaspar/robotics/catkin_ws_InFUmatiker/devel/share/assignment4/cmake/assignment4Config.cmake)
Linked: (/home/kaspar/robotics/catkin_ws_InFUmatiker/devel/.private/assignment4/share/assignment4/cmake/assignment4Config-version.cmake, /home/kaspar/robotics/catkin_ws_InFUmatiker/devel/share/assignment4/cmake/assignment4Config-version.cmake)
